{
   "response": {
      "status": "ok",
      "userTier": "developer",
      "total": 8003,
      "startIndex": 1,
      "pageSize": 10,
      "currentPage": 1,
      "pages": 801,
      "orderBy": "newest",
      "results": [
         {
            "id": "food/2021/jun/28/thomasina-miers-recipe-lemon-gooseberry-posset-coconut-oat-crunchies",
            "type": "article",
            "sectionId": "food",
            "sectionName": "Food",
            "webPublicationDate": "2021-06-28T12:00:40Z",
            "webTitle": "Thomasina Miers’ recipe for lemon gooseberry posset with coconut oat crunchies",
            "webUrl": "https://www.theguardian.com/food/2021/jun/28/thomasina-miers-recipe-lemon-gooseberry-posset-coconut-oat-crunchies",
            "apiUrl": "https://content.guardianapis.com/food/2021/jun/28/thomasina-miers-recipe-lemon-gooseberry-posset-coconut-oat-crunchies",
            "fields": {
               "headline": "Thomasina Miers’ recipe for lemon gooseberry posset with coconut oat crunchies",
               "thumbnail": "https://media.guim.co.uk/67f319253dcded88739eef9ae80402e6f1da8a87/0_1432_5792_3475/500.jpg"
            },
            "tags": [
               {
                  "id": "food/series/the-simple-fix",
                  "type": "series",
                  "sectionId": "food",
                  "sectionName": "Food",
                  "webTitle": "The simple fix",
                  "webUrl": "https://www.theguardian.com/food/series/the-simple-fix",
                  "apiUrl": "https://content.guardianapis.com/food/series/the-simple-fix",
                  "references": [],
                  "description": "<p>Easy and delicious meals by Thomasina Miers<\/p>"
               }
            ],
            "isHosted": false,
            "pillarId": "pillar/lifestyle",
            "pillarName": "Lifestyle"
         },
         {
            "id": "food/2021/jun/28/how-dyou-like-them-apples-great-recipes-for-the-summer-using-cider",
            "type": "article",
            "sectionId": "food",
            "sectionName": "Food",
            "webPublicationDate": "2021-06-28T10:30:38Z",
            "webTitle": "How d’you like them apples? Great recipes for the summer using cider ",
            "webUrl": "https://www.theguardian.com/food/2021/jun/28/how-dyou-like-them-apples-great-recipes-for-the-summer-using-cider",
            "apiUrl": "https://content.guardianapis.com/food/2021/jun/28/how-dyou-like-them-apples-great-recipes-for-the-summer-using-cider",
            "fields": {
               "headline": "How d’you like them apples? Great recipes for the summer using cider ",
               "thumbnail": "https://media.guim.co.uk/3769f5c610cc5edd8ecfb4085b77005c82ed129d/0_252_4499_2700/500.jpg"
            },
            "tags": [
               {
                  "id": "lifeandstyle/series/how-to-live-now",
                  "type": "series",
                  "sectionId": "lifeandstyle",
                  "sectionName": "Life and style",
                  "webTitle": "How to live now",
                  "webUrl": "https://www.theguardian.com/lifeandstyle/series/how-to-live-now",
                  "apiUrl": "https://content.guardianapis.com/lifeandstyle/series/how-to-live-now",
                  "references": [],
                  "description": "<p>Expert guides and personal stories to help you negotiate life in extraordinary times<\/p>"
               }
            ],
            "isHosted": false,
            "pillarId": "pillar/lifestyle",
            "pillarName": "Lifestyle"
         },
         {
            "id": "food/2021/jun/28/rachel-roddy-recipe-chocolate-chip-yoghurt-ring-cake",
            "type": "article",
            "sectionId": "food",
            "sectionName": "Food",
            "webPublicationDate": "2021-06-28T10:00:38Z",
            "webTitle": "Rachel Roddy’s recipe for chocolate chip and yoghurt ring cake",
            "webUrl": "https://www.theguardian.com/food/2021/jun/28/rachel-roddy-recipe-chocolate-chip-yoghurt-ring-cake",
            "apiUrl": "https://content.guardianapis.com/food/2021/jun/28/rachel-roddy-recipe-chocolate-chip-yoghurt-ring-cake",
            "fields": {
               "headline": "Rachel Roddy’s recipe for chocolate chip and yoghurt ring cake",
               "thumbnail": "https://media.guim.co.uk/0fc0f2b2f71e51669f0a78fe4412e16d3b768f4b/0_706_8019_4812/500.jpg"
            },
            "tags": [
               {
                  "id": "food/series/a-kitchen-in-rome",
                  "type": "series",
                  "sectionId": "food",
                  "sectionName": "Food",
                  "webTitle": "A kitchen in Rome",
                  "webUrl": "https://www.theguardian.com/food/series/a-kitchen-in-rome",
                  "apiUrl": "https://content.guardianapis.com/food/series/a-kitchen-in-rome",
                  "references": [],
                  "description": "<p>Rachel Roddy dispatches weekly from her kitchen in Rome, where seasonal ingredients are worked into an everyday dish you can adapt easily and quickly<\/p>"
               }
            ],
            "isHosted": false,
            "pillarId": "pillar/lifestyle",
            "pillarName": "Lifestyle"
         },
         {
            "id": "food/2021/jun/27/joe-trivelli-recipes-classic-italian-dishes-to-enjoy-in-the-garden-on-a-sunny-day",
            "type": "article",
            "sectionId": "food",
            "sectionName": "Food",
            "webPublicationDate": "2021-06-27T09:30:21Z",
            "webTitle": "Classic Italian dishes to enjoy in the garden on a sunny day",
            "webUrl": "https://www.theguardian.com/food/2021/jun/27/joe-trivelli-recipes-classic-italian-dishes-to-enjoy-in-the-garden-on-a-sunny-day",
            "apiUrl": "https://content.guardianapis.com/food/2021/jun/27/joe-trivelli-recipes-classic-italian-dishes-to-enjoy-in-the-garden-on-a-sunny-day",
            "fields": {
               "headline": "Classic Italian dishes to enjoy in the garden on a sunny day",
               "thumbnail": "https://media.guim.co.uk/3be79963281ed293e18cc4bb1ab0b3779a61d08a/0_413_7896_4738/500.jpg"
            },
            "tags": [],
            "isHosted": false,
            "pillarId": "pillar/lifestyle",
            "pillarName": "Lifestyle"
         },
         {
            "id": "food/2021/jun/27/youve-been-warmed-10-slow-bake-recipes-to-keep-you-home",
            "type": "article",
            "sectionId": "food",
            "sectionName": "Food",
            "webPublicationDate": "2021-06-26T20:00:05Z",
            "webTitle": "You’ve been warmed: 10 slow-bake recipes for the Australian winter",
            "webUrl": "https://www.theguardian.com/food/2021/jun/27/youve-been-warmed-10-slow-bake-recipes-to-keep-you-home",
            "apiUrl": "https://content.guardianapis.com/food/2021/jun/27/youve-been-warmed-10-slow-bake-recipes-to-keep-you-home",
            "fields": {
               "headline": "You’ve been warmed: 10 slow-bake recipes for the Australian winter",
               "thumbnail": "https://media.guim.co.uk/a71b3e56df814ac2a65cfff12627908b405c4d3c/0_1078_3720_2232/500.jpg"
            },
            "tags": [],
            "isHosted": false,
            "pillarId": "pillar/lifestyle",
            "pillarName": "Lifestyle"
         },
         {
            "id": "food/2021/jun/26/ravinder-bhogal-recipes-tomato-goats-cheese-polenta-cake-rhubarb-almond-bars",
            "type": "article",
            "sectionId": "food",
            "sectionName": "Food",
            "webPublicationDate": "2021-06-26T06:00:48Z",
            "webTitle": "Ravinder Bhogal’s picnic recipes for tomato polenta cake and rhubarb almond bars",
            "webUrl": "https://www.theguardian.com/food/2021/jun/26/ravinder-bhogal-recipes-tomato-goats-cheese-polenta-cake-rhubarb-almond-bars",
            "apiUrl": "https://content.guardianapis.com/food/2021/jun/26/ravinder-bhogal-recipes-tomato-goats-cheese-polenta-cake-rhubarb-almond-bars",
            "fields": {
               "headline": "Ravinder Bhogal’s picnic recipes for tomato polenta cake and rhubarb almond bars",
               "thumbnail": "https://media.guim.co.uk/61068674244a270430e62a55d8666ffe7040f102/0_3681_4480_2688/500.jpg"
            },
            "tags": [],
            "isHosted": false,
            "pillarId": "pillar/lifestyle",
            "pillarName": "Lifestyle"
         },
         {
            "id": "food/2021/jun/26/spare-bulbs-try-a-recipe-for-confit-garlic",
            "type": "article",
            "sectionId": "food",
            "sectionName": "Food",
            "webPublicationDate": "2021-06-26T05:00:46Z",
            "webTitle": "Spare bulbs? Try a recipe for confit garlic",
            "webUrl": "https://www.theguardian.com/food/2021/jun/26/spare-bulbs-try-a-recipe-for-confit-garlic",
            "apiUrl": "https://content.guardianapis.com/food/2021/jun/26/spare-bulbs-try-a-recipe-for-confit-garlic",
            "fields": {
               "headline": "Spare bulbs? Try a recipe for confit garlic",
               "thumbnail": "https://media.guim.co.uk/b9f125ba2afe1265af799f2f41accc8d6f5793ca/0_80_2048_1229/500.jpg"
            },
            "tags": [
               {
                  "id": "food/series/waste-not",
                  "type": "series",
                  "sectionId": "food",
                  "sectionName": "Food",
                  "webTitle": "Waste not",
                  "webUrl": "https://www.theguardian.com/food/series/waste-not",
                  "apiUrl": "https://content.guardianapis.com/food/series/waste-not",
                  "references": []
               }
            ],
            "isHosted": false,
            "pillarId": "pillar/lifestyle",
            "pillarName": "Lifestyle"
         },
         {
            "id": "food/2021/jun/23/how-to-make-summer-minestrone-recipe-felicity-cloake-masterclass",
            "type": "article",
            "sectionId": "food",
            "sectionName": "Food",
            "webPublicationDate": "2021-06-23T11:00:26Z",
            "webTitle": "How to make summer minestrone – recipe | Felicity Cloake's masterclass",
            "webUrl": "https://www.theguardian.com/food/2021/jun/23/how-to-make-summer-minestrone-recipe-felicity-cloake-masterclass",
            "apiUrl": "https://content.guardianapis.com/food/2021/jun/23/how-to-make-summer-minestrone-recipe-felicity-cloake-masterclass",
            "fields": {
               "headline": "How to make summer minestrone – recipe ",
               "thumbnail": "https://media.guim.co.uk/6b482530ff8e56ed4c0e6027cf3536fddb7fdeb7/1540_2233_5447_3269/500.jpg"
            },
            "tags": [
               {
                  "id": "food/series/felicity-cloake-s-masterclass",
                  "type": "series",
                  "sectionId": "food",
                  "sectionName": "Food",
                  "webTitle": "Felicity Cloake's masterclass",
                  "webUrl": "https://www.theguardian.com/food/series/felicity-cloake-s-masterclass",
                  "apiUrl": "https://content.guardianapis.com/food/series/felicity-cloake-s-masterclass",
                  "references": [],
                  "description": "<p>Learn to cook the classics in a few easy steps.<\/p>"
               }
            ],
            "isHosted": false,
            "pillarId": "pillar/lifestyle",
            "pillarName": "Lifestyle"
         },
         {
            "id": "food/2021/jun/22/stock-up-10-easy-freeze-soups-to-keep-you-warm-all-winter",
            "type": "article",
            "sectionId": "food",
            "sectionName": "Food",
            "webPublicationDate": "2021-06-21T17:30:36Z",
            "webTitle": "Stock up: 10 easy-freeze soups to keep you warm all winter",
            "webUrl": "https://www.theguardian.com/food/2021/jun/22/stock-up-10-easy-freeze-soups-to-keep-you-warm-all-winter",
            "apiUrl": "https://content.guardianapis.com/food/2021/jun/22/stock-up-10-easy-freeze-soups-to-keep-you-warm-all-winter",
            "fields": {
               "headline": "Stock up: 10 easy-freeze soups to keep you warm all winter",
               "thumbnail": "https://media.guim.co.uk/3a408cbc00d5ae70eb3d04df4fadab85eedae5c3/0_306_4343_2607/500.jpg"
            },
            "tags": [],
            "isHosted": false,
            "pillarId": "pillar/lifestyle",
            "pillarName": "Lifestyle"
         },
         {
            "id": "food/2021/jun/21/thomasina-miers-recipe-for-kritharaki-broad-beans-and-tomato-with-baked-feta",
            "type": "article",
            "sectionId": "food",
            "sectionName": "Food",
            "webPublicationDate": "2021-06-21T12:00:45Z",
            "webTitle": "Thomasina Miers’ recipe for kritharaki, broad beans and tomato with baked feta | The simple fix",
            "webUrl": "https://www.theguardian.com/food/2021/jun/21/thomasina-miers-recipe-for-kritharaki-broad-beans-and-tomato-with-baked-feta",
            "apiUrl": "https://content.guardianapis.com/food/2021/jun/21/thomasina-miers-recipe-for-kritharaki-broad-beans-and-tomato-with-baked-feta",
            "fields": {
               "headline": "Thomasina Miers’ recipe for kritharaki, broad beans and tomato with baked feta ",
               "thumbnail": "https://media.guim.co.uk/30dec8f7ef564e9ce0338de5d1fc294121c826c5/0_3346_5792_3475/500.jpg"
            },
            "tags": [
               {
                  "id": "food/series/the-simple-fix",
                  "type": "series",
                  "sectionId": "food",
                  "sectionName": "Food",
                  "webTitle": "The simple fix",
                  "webUrl": "https://www.theguardian.com/food/series/the-simple-fix",
                  "apiUrl": "https://content.guardianapis.com/food/series/the-simple-fix",
                  "references": [],
                  "description": "<p>Easy and delicious meals by Thomasina Miers<\/p>"
               },
               {
                  "id": "food/series/thomasina-miers-recipes",
                  "type": "series",
                  "sectionId": "food",
                  "sectionName": "Food",
                  "webTitle": "Thomasina Miers recipes",
                  "webUrl": "https://www.theguardian.com/food/series/thomasina-miers-recipes",
                  "apiUrl": "https://content.guardianapis.com/food/series/thomasina-miers-recipes",
                  "references": []
               }
            ],
            "isHosted": false,
            "pillarId": "pillar/lifestyle",
            "pillarName": "Lifestyle"
         }
      ]
   }
}
